Ejemplo de práctica arcenso
…
Main functions

get_census(): get a list with the tables currently available in the package

check_repository(): reports the tables currently available in the package

arcenso(): shinyapp to query the available tables in the package

get_census(year = 1970, topic = "ESTRUCTURA DE POBLACION", geolvl = "Total del país")

$c70_total_del_pais_poblacion_c1
# A tibble: 54 × 3
   grupo_de_edad sexo    poblacion
   <chr>         <chr>   <chr>    
 1 0-4           Total   2355300  
 2 0-4           Varones 1196950  
 3 0-4           Mujeres 1158350  
 4 5-9           Total   2297000  
 5 5-9           Varones 1163050  
 6 5-9           Mujeres 1133950  
 7 10-14         Total   2201150  
 8 10-14         Varones 1114300  
 9 10-14         Mujeres 1086850  
10 15-19         Total   2098700  
# ℹ 44 more rows
…
